A1/wave.vcd
$date
	Sun Feb  1 19:48:27 2026
$end
$version
	Icarus Verilog
$end
$timescale
	1ps
$end
$scope module testbench $end
$var wire 10 ! d [9:0] $end
$var reg 4 " in [3:0] $end
$var reg 1 # twos_comp $end
$scope module DUT $end
$var wire 4 $ in [3:0] $end
$var wire 1 # twos_comp $end
$var wire 10 % d [9:0] $end
$var wire 10 & bus_u [9:0] $end
$var wire 10 ' bus_s [9:0] $end
$scope module decoder $end
$var wire 4 ( i_bus [3:0] $end
$var reg 10 ) o_bus [9:0] $end
$upscope $end
$scope module decoder_s $end
$var wire 4 * i_bus [3:0] $end
$var reg 10 + o_bus [9:0] $end
$upscope $end
$scope module mux $end
$var wire 10 , i_bus_s [9:0] $end
$var wire 10 - i_bus_u [9:0] $end
$var wire 1 # twos_compliment $end
$var wire 10 . o_bus [9:0] $end
$upscope $end
$upscope $end
$scope task test $end
$var reg 10 / expected_d [9:0] $end
$var reg 5 0 in1 [4:0] $end
$var reg 1 1 twos_comp1 $end
$upscope $end
$upscope $end
$enddefinitions $end
$comment Show the parameter values. $end
$dumpall
$end
#0
$dumpvars
01
b0 0
b111111 /
b111111 .
b111111 -
b111111 ,
b111111 +
b0 *
b111111 )
b0 (
b111111 '
b111111 &
b111111 %
b0 $
0#
b0 "
b111111 !
$end
#10000
b110 !
b110 %
b110 .
b110 &
b110 )
b110 -
b110 '
b110 +
b110 ,
b110 /
b1 "
b1 $
b1 (
b1 *
b1 0
#20000
b1011011 !
b1011011 %
b1011011 .
b1011011 '
b1011011 +
b1011011 ,
b1011011 &
b1011011 )
b1011011 -
b1011011 /
b10 "
b10 $
b10 (
b10 *
b10 0
#30000
b1001111 !
b1001111 %
b1001111 .
b1001111 &
b1001111 )
b1001111 -
b1001111 '
b1001111 +
b1001111 ,
b1001111 /
b11 "
b11 $
b11 (
b11 *
b11 0
#40000
b1100110 !
b1100110 %
b1100110 .
b1100110 '
b1100110 +
b1100110 ,
b1100110 &
b1100110 )
b1100110 -
b1100110 /
b100 "
b100 $
b100 (
b100 *
b100 0
#50000
b1101101 !
b1101101 %
b1101101 .
b1101101 &
b1101101 )
b1101101 -
b1101101 '
b1101101 +
b1101101 ,
b1101101 /
b101 "
b101 $
b101 (
b101 *
b101 0
#60000
b1011111 !
b1011111 %
b1011111 .
b1011111 '
b1011111 +
b1011111 ,
b1011111 &
b1011111 )
b1011111 -
b1011111 /
b110 "
b110 $
b110 (
b110 *
b110 0
#70000
b111 !
b111 %
b111 .
b111 &
b111 )
b111 -
b111 '
b111 +
b111 ,
b111 /
b111 "
b111 $
b111 (
b111 *
b111 0
#80000
b1111111 !
b1111111 %
b1111111 .
b1001111111 '
b1001111111 +
b1001111111 ,
b1111111 &
b1111111 )
b1111111 -
b1111111 /
b1000 "
b1000 $
b1000 (
b1000 *
b1000 0
#90000
b1100111 !
b1100111 %
b1100111 .
b1100111 &
b1100111 )
b1100111 -
b1000000111 '
b1000000111 +
b1000000111 ,
b1100111 /
b1001 "
b1001 $
b1001 (
b1001 *
b1001 0
#100000
b110111111 !
b110111111 %
b110111111 .
b1001011111 '
b1001011111 +
b1001011111 ,
b110111111 &
b110111111 )
b110111111 -
b110111111 /
b1010 "
b1010 $
b1010 (
b1010 *
b1010 0
#110000
b110000110 !
b110000110 %
b110000110 .
b110000110 &
b110000110 )
b110000110 -
b1001101101 '
b1001101101 +
b1001101101 ,
b110000110 /
b1011 "
b1011 $
b1011 (
b1011 *
b1011 0
#120000
b111011011 !
b111011011 %
b111011011 .
b1001100110 '
b1001100110 +
b1001100110 ,
b111011011 &
b111011011 )
b111011011 -
b111011011 /
b1100 "
b1100 $
b1100 (
b1100 *
b1100 0
#130000
b111001111 !
b111001111 %
b111001111 .
b111001111 &
b111001111 )
b111001111 -
b1001001111 '
b1001001111 +
b1001001111 ,
b111001111 /
b1101 "
b1101 $
b1101 (
b1101 *
b1101 0
#140000
b111100110 !
b111100110 %
b111100110 .
b1001011011 '
b1001011011 +
b1001011011 ,
b111100110 &
b111100110 )
b111100110 -
b111100110 /
b1110 "
b1110 $
b1110 (
b1110 *
b1110 0
#150000
b111101101 !
b111101101 %
b111101101 .
b111101101 &
b111101101 )
b111101101 -
b1000000110 '
b1000000110 +
b1000000110 ,
b111101101 /
b1111 "
b1111 $
b1111 (
b1111 *
b1111 0
#160000
b111111 '
b111111 +
b111111 ,
b111111 &
b111111 )
b111111 -
b111111 !
b111111 %
b111111 .
b111111 /
b0 "
b0 $
b0 (
b0 *
b0 0
1#
11
#170000
b110 !
b110 %
b110 .
b110 &
b110 )
b110 -
b110 '
b110 +
b110 ,
b110 /
b1 "
b1 $
b1 (
b1 *
b1 0
#180000
b1011011 !
b1011011 %
b1011011 .
b1011011 '
b1011011 +
b1011011 ,
b1011011 &
b1011011 )
b1011011 -
b1011011 /
b10 "
b10 $
b10 (
b10 *
b10 0
#190000
b1001111 !
b1001111 %
b1001111 .
b1001111 &
b1001111 )
b1001111 -
b1001111 '
b1001111 +
b1001111 ,
b1001111 /
b11 "
b11 $
b11 (
b11 *
b11 0
#200000
b1100110 !
b1100110 %
b1100110 .
b1100110 '
b1100110 +
b1100110 ,
b1100110 &
b1100110 )
b1100110 -
b1100110 /
b100 "
b100 $
b100 (
b100 *
b100 0
#210000
b1101101 !
b1101101 %
b1101101 .
b1101101 &
b1101101 )
b1101101 -
b1101101 '
b1101101 +
b1101101 ,
b1101101 /
b101 "
b101 $
b101 (
b101 *
b101 0
#220000
b1011111 !
b1011111 %
b1011111 .
b1011111 '
b1011111 +
b1011111 ,
b1011111 &
b1011111 )
b1011111 -
b1011111 /
b110 "
b110 $
b110 (
b110 *
b110 0
#230000
b111 !
b111 %
b111 .
b111 &
b111 )
b111 -
b111 '
b111 +
b111 ,
b111 /
b111 "
b111 $
b111 (
b111 *
b111 0
#240000
b1001111111 !
b1001111111 %
b1001111111 .
b1001111111 '
b1001111111 +
b1001111111 ,
b1111111 &
b1111111 )
b1111111 -
b1001111111 /
b1000 "
b1000 $
b1000 (
b1000 *
b1000 0
#250000
b1000000111 !
b1000000111 %
b1000000111 .
b1100111 &
b1100111 )
b1100111 -
b1000000111 '
b1000000111 +
b1000000111 ,
b1000000111 /
b1001 "
b1001 $
b1001 (
b1001 *
b1001 0
#260000
b1001011111 !
b1001011111 %
b1001011111 .
b1001011111 '
b1001011111 +
b1001011111 ,
b110111111 &
b110111111 )
b110111111 -
b1001011111 /
b1010 "
b1010 $
b1010 (
b1010 *
b1010 0
#270000
b1001101101 !
b1001101101 %
b1001101101 .
b110000110 &
b110000110 )
b110000110 -
b1001101101 '
b1001101101 +
b1001101101 ,
b1001101101 /
b1011 "
b1011 $
b1011 (
b1011 *
b1011 0
#280000
b1001100110 !
b1001100110 %
b1001100110 .
b1001100110 '
b1001100110 +
b1001100110 ,
b111011011 &
b111011011 )
b111011011 -
b1001100110 /
b1100 "
b1100 $
b1100 (
b1100 *
b1100 0
#290000
b1001001111 !
b1001001111 %
b1001001111 .
b111001111 &
b111001111 )
b111001111 -
b1001001111 '
b1001001111 +
b1001001111 ,
b1001001111 /
b1101 "
b1101 $
b1101 (
b1101 *
b1101 0
#300000
b1001011011 !
b1001011011 %
b1001011011 .
b1001011011 '
b1001011011 +
b1001011011 ,
b111100110 &
b111100110 )
b111100110 -
b1001011011 /
b1110 "
b1110 $
b1110 (
b1110 *
b1110 0
#310000
b1000000110 !
b1000000110 %
b1000000110 .
b111101101 &
b111101101 )
b111101101 -
b1000000110 '
b1000000110 +
b1000000110 ,
b1000000110 /
b1111 "
b1111 $
b1111 (
b1111 *
b1111 0
